<svg xmlns="http://www.w3.org/2000/svg" xmlns:xlink="http://www.w3.org/1999/xlink" width="12" height="12" viewBox="0 0 12 12">
  <g id="dashboard" transform="translate(-1.25 -1.25)">
    <path id="Path_38370" data-name="Path 38370" d="M27,23.625h.715v1.787H27Z" transform="translate(-16.885 -14.583)" fill="currentColor"/>
    <path id="Path_38371" data-name="Path 38371" d="M22.5,18h.715v3.575H22.5Z" transform="translate(-13.815 -10.745)" fill="currentColor"/>
    <path id="Path_38372" data-name="Path 38372" d="M8.537,21.575A1.79,1.79,0,0,1,6.75,19.787h.715a1.072,1.072,0,1,0,1.072-1.072V18a1.787,1.787,0,0,1,0,3.575Z" transform="translate(-3.07 -10.745)" fill="currentColor"/>
    <path id="Path_38373" data-name="Path 38373" d="M11.545,2.25H2.965a.716.716,0,0,0-.715.715v8.58a.716.716,0,0,0,.715.715h8.58a.716.716,0,0,0,.715-.715V2.965A.716.716,0,0,0,11.545,2.25Zm0,3.217h-5v-2.5h5Zm-5.72-2.5v2.5H2.965v-2.5Zm-2.86,8.58V6.182h8.58v5.362Z" fill="currentColor"/>
  </g>
</svg>