<svg xmlns="http://www.w3.org/2000/svg" xmlns:xlink="http://www.w3.org/1999/xlink" width="12" height="12" viewBox="0 0 12 12">
  <g id="file" data-name="Group 2087" transform="translate(-693.686 -1708.559)">
    <path id="Path_36768" data-name="Path 36768" d="M1122-3420.847h7.188v-7.894l-1.993-1.991H1122Z" transform="translate(-425.908 5140.347)" fill="none" stroke="currentColor" stroke-linecap="round" stroke-linejoin="round" stroke-width="0.75"/>
    <g id="Group_2086" data-name="Group 2086" transform="translate(697.889 1712.76)">
      <line id="Line_138" data-name="Line 138" x2="3.145" transform="translate(0 3.594)" fill="none" stroke="currentColor" stroke-linecap="round" stroke-width="0.75"/>
      <line id="Line_139" data-name="Line 139" x2="3.145" transform="translate(0 1.797)" fill="none" stroke="currentColor" stroke-linecap="round" stroke-width="0.75"/>
      <line id="Line_140" data-name="Line 140" x2="2.246" fill="none" stroke="currentColor" stroke-linecap="round" stroke-width="0.75"/>
    </g>
  </g>
</svg>