<svg xmlns="http://www.w3.org/2000/svg" xmlns:xlink="http://www.w3.org/1999/xlink" width="12" height="12" viewBox="0 0 12 12">
  <g id="info" transform="translate(-1.25 -1.25)">
    <path id="Path_38366" data-name="Path 38366" d="M12.248,7.249a5,5,0,1,1-5-5A5,5,0,0,1,12.248,7.249Z" transform="translate(0)" fill="none" stroke="currentColor" stroke-linecap="round" stroke-linejoin="round" stroke-width="0.5" stroke="currentColor"/>
    <path id="Path_38376" data-name="Path 38376" d="M17.514,25.152a.422.422,0,1,1-.422-.422A.422.422,0,0,1,17.514,25.152Z" transform="translate(-9.843 -19.96)" fill="currentColor"/>
    <path id="Path_38377" data-name="Path 38377" d="M17.317,12.419A.317.317,0,0,1,17,12.1V8.927a.317.317,0,0,1,.635,0V12.1A.317.317,0,0,1,17.317,12.419Z" transform="translate(-10.068 -2.361)" fill="currentColor"/>
  </g>
</svg>