<svg xmlns="http://www.w3.org/2000/svg" xmlns:xlink="http://www.w3.org/1999/xlink" width="12" height="12" viewBox="0 0 12 12">
  <g id="link" transform="translate(-1.25 -8.375)">
    <path id="Path_38363" data-name="Path 38363" d="M6.145,12.375H4.432a2.182,2.182,0,1,0,0,4.365H6.615a2.182,2.182,0,0,0,2.059-2.91h-.6a.707.707,0,0,0-.182.023,1.455,1.455,0,0,1-1.273,2.16H4.432a1.455,1.455,0,0,1,0-2.91H5.549a2.915,2.915,0,0,1,.6-.727Z" transform="translate(0 0)"/>
    <path id="Path_38364" data-name="Path 38364" d="M15.68,12.375a2.182,2.182,0,0,0-2.059,2.91h.8A1.455,1.455,0,0,1,15.68,13.1h2.182a1.455,1.455,0,1,1,0,2.91H16.746a2.924,2.924,0,0,1-.6.727h1.713a2.182,2.182,0,0,0,0-4.365Z" transform="translate(-7.611 0)"/>
  </g>
</svg>