<svg id="img-logo-reverse" xmlns="http://www.w3.org/2000/svg" width="123.817" height="21.241" viewBox="0 0 123.817 21.241">
  <g id="Group_1" data-name="Group 1" transform="translate(21.973)">
    <path id="Path_1" data-name="Path 1" d="M-1401.349,61.462c0-4.7-3-7.374-8.295-7.374h-8.787V75.329h4.567V69.26h4.653l3.208,6.069h5.174l-4.306-7.01C-1402.678,67.105-1401.349,64.74-1401.349,61.462Zm-8.295,3.793h-4.22V58.063h4.22c2.515,0,3.96,1.184,3.96,3.55C-1405.683,64.041-1407.128,65.255-1409.643,65.255Z" transform="translate(1418.43 -54.088)" fill="#f1f1f1"/>
    <rect id="Rectangle_2" data-name="Rectangle 2" width="4.566" height="21.241" transform="translate(24.493 0)" fill="#f1f1f1"/>
    <path id="Path_2" data-name="Path 2" d="M-1376.443,70.11l-5.52-16.022h-4.913l7.948,21.241h4.711l8.035-21.241h-4.711Z" transform="translate(1421.759 -54.088)" fill="#f1f1f1"/>
    <path id="Path_3" data-name="Path 3" d="M-1358.352,66.651h9.769V62.676h-9.769V58.063h10.839V54.088h-15.405V75.329h15.723V71.354h-11.156Z" transform="translate(1424.287 -54.088)" fill="#f1f1f1"/>
    <path id="Path_4" data-name="Path 4" d="M-1328.932,68.319c2.458-1.214,3.786-3.58,3.786-6.857,0-4.7-3.006-7.374-8.295-7.374h-8.786V75.329h4.567V69.26h4.653l3.208,6.069h5.174Zm-4.509-3.064h-4.219V58.063h4.219c2.514,0,3.96,1.184,3.96,3.55C-1329.481,64.041-1330.927,65.255-1333.441,65.255Z" transform="translate(1426.47 -54.088)" fill="#f1f1f1"/>
  </g>
  <path id="Path_5" data-name="Path 5" d="M-1437.956,61.65a.44.44,0,0,0,.688.3,5.6,5.6,0,0,1,5.733-.378,6.065,6.065,0,0,0,3.546.72,5.956,5.956,0,0,0,3.062-1.45.446.446,0,0,0,.153-.4l-.343-2.621a.441.441,0,0,0-.7-.292,5.683,5.683,0,0,1-2.646,1.122,6.064,6.064,0,0,1-3.547-.72,5.621,5.621,0,0,0-6.131.671.442.442,0,0,0-.159.4Z" transform="translate(1438.306 -53.747)" fill="#fff"/>
  <path id="Path_6" data-name="Path 6" d="M-1437.956,69.085a.439.439,0,0,0,.688.3,5.6,5.6,0,0,1,5.733-.377,6.055,6.055,0,0,0,3.546.719,5.945,5.945,0,0,0,3.062-1.449.447.447,0,0,0,.153-.4l-.343-2.622a.441.441,0,0,0-.7-.291,5.692,5.692,0,0,1-2.646,1.121,6.054,6.054,0,0,1-3.547-.719,5.623,5.623,0,0,0-6.131.67.445.445,0,0,0-.159.4Z" transform="translate(1438.306 -52.963)" fill="#f1f1f1"/>
</svg>
